DVEfiles/crash_04.06-13.34/dve_gui.log
Chronologic VCS simulator copyright 1991-2022
Contains Synopsys proprietary information.
Compiler version T-2022.06_Full64; Runtime version T-2022.06_Full64;  Apr  6 11:31 2023
VCD+ Writer T-2022.06_Full64 Copyright (c) 1991-2022 by Synopsys Inc.
The file '/afs/ece.cmu.edu/usr/araghave/18624/project/inter.vpd' was opened successfully.
time:                   0, Input data: data_en:x, state:x

INPUT datain:xxxxxxxxxx

Initial node:'{'{ascii_char:x, frequency:x, is_leaf_node:'hx, left_node:x, right_node:x}, '{ascii_char:x, frequency:x, is_leaf_node:'hx, left_node:x, right_node:x}, '{ascii_char:x, frequency:x, is_leaf_node:'hx, left_node:x, right_node:x}} 

time:             1000000, Input data: data_en:x, state:x

INPUT datain:xxxxxxxxxx

Initial node:'{'{ascii_char:x, frequency:x, is_leaf_node:'hx, left_node:x, right_node:x}, '{ascii_char:x, frequency:x, is_leaf_node:'hx, left_node:x, right_node:x}, '{ascii_char:x, frequency:x, is_leaf_node:'hx, left_node:x, right_node:x}} 

time:             1000000, Input data: data_en:x, state:0

INPUT datain:xxxxxxxxxx

Initial node:'{'{ascii_char:x, frequency:x, is_leaf_node:'hx, left_node:x, right_node:x}, '{ascii_char:x, frequency:x, is_leaf_node:'hx, left_node:x, right_node:x}, '{ascii_char:x, frequency:x, is_leaf_node:'hx, left_node:x, right_node:x}} 

time:             2000000, Input data: data_en:x, state:0

INPUT datain:xxxxxxxxxx

Initial node:'{'{ascii_char:x, frequency:x, is_leaf_node:'hx, left_node:x, right_node:x}, '{ascii_char:x, frequency:x, is_leaf_node:'hx, left_node:x, right_node:x}, '{ascii_char:x, frequency:x, is_leaf_node:'hx, left_node:x, right_node:x}} 

time:             5000000, Input data: data_en:1, state:0

INPUT datain:6161655f61

Initial node:'{'{ascii_char:x, frequency:x, is_leaf_node:'hx, left_node:x, right_node:x}, '{ascii_char:x, frequency:x, is_leaf_node:'hx, left_node:x, right_node:x}, '{ascii_char:x, frequency:x, is_leaf_node:'hx, left_node:x, right_node:x}} 

time:             6000000, Input data: data_en:1, state:1

INPUT datain:6161655f61

Initial node:'{'{ascii_char:x, frequency:x, is_leaf_node:'hx, left_node:x, right_node:x}, '{ascii_char:x, frequency:x, is_leaf_node:'hx, left_node:x, right_node:x}, '{ascii_char:x, frequency:x, is_leaf_node:'hx, left_node:x, right_node:x}} 

time:             7000000, Input data: data_en:1, state:1

INPUT datain:6161655f61

Initial node:'{'{ascii_char:97, frequency:3, is_leaf_node:'h1, left_node:0, right_node:0}, '{ascii_char:101, frequency:1, is_leaf_node:'h1, left_node:0, right_node:0}, '{ascii_char:95, frequency:1, is_leaf_node:'h1, left_node:0, right_node:0}} 

time:             7000000, Input data: data_en:1, state:2

INPUT datain:6161655f61

Initial node:'{'{ascii_char:97, frequency:3, is_leaf_node:'h1, left_node:0, right_node:0}, '{ascii_char:101, frequency:1, is_leaf_node:'h1, left_node:0, right_node:0}, '{ascii_char:95, frequency:1, is_leaf_node:'h1, left_node:0, right_node:0}} 

time:             8000000, Input data: data_en:1, state:3

INPUT datain:6161655f61

Initial node:'{'{ascii_char:97, frequency:3, is_leaf_node:'h1, left_node:0, right_node:0}, '{ascii_char:101, frequency:1, is_leaf_node:'h1, left_node:0, right_node:0}, '{ascii_char:95, frequency:1, is_leaf_node:'h1, left_node:0, right_node:0}} 

time:             9000000, Input data: data_en:1, state:4

INPUT datain:6161655f61

Initial node:'{'{ascii_char:97, frequency:3, is_leaf_node:'h1, left_node:0, right_node:0}, '{ascii_char:101, frequency:1, is_leaf_node:'h1, left_node:0, right_node:0}, '{ascii_char:95, frequency:1, is_leaf_node:'h1, left_node:0, right_node:0}} 

time:            10000000, Input data: data_en:1, state:3

INPUT datain:6161655f61

Initial node:'{'{ascii_char:97, frequency:3, is_leaf_node:'h1, left_node:0, right_node:0}, '{ascii_char:101, frequency:1, is_leaf_node:'h1, left_node:0, right_node:0}, '{ascii_char:95, frequency:1, is_leaf_node:'h1, left_node:0, right_node:0}} 

time:            11000000, Input data: data_en:1, state:4

INPUT datain:6161655f61

Initial node:'{'{ascii_char:97, frequency:3, is_leaf_node:'h1, left_node:0, right_node:0}, '{ascii_char:101, frequency:1, is_leaf_node:'h1, left_node:0, right_node:0}, '{ascii_char:95, frequency:1, is_leaf_node:'h1, left_node:0, right_node:0}} 

time:            12000000, Input data: data_en:1, state:4

INPUT datain:6161655f61

Initial node:'{'{ascii_char:97, frequency:3, is_leaf_node:'h1, left_node:0, right_node:0}, '{ascii_char:101, frequency:1, is_leaf_node:'h1, left_node:0, right_node:0}, '{ascii_char:95, frequency:1, is_leaf_node:'h1, left_node:0, right_node:0}} 

time:            12000000, Input data: data_en:1, state:3

INPUT datain:6161655f61

Initial node:'{'{ascii_char:97, frequency:3, is_leaf_node:'h1, left_node:0, right_node:0}, '{ascii_char:101, frequency:1, is_leaf_node:'h1, left_node:0, right_node:0}, '{ascii_char:95, frequency:1, is_leaf_node:'h1, left_node:0, right_node:0}} 

time:            13000000, Input data: data_en:1, state:4

INPUT datain:6161655f61

Initial node:'{'{ascii_char:97, frequency:3, is_leaf_node:'h1, left_node:0, right_node:0}, '{ascii_char:101, frequency:1, is_leaf_node:'h1, left_node:0, right_node:0}, '{ascii_char:95, frequency:1, is_leaf_node:'h1, left_node:0, right_node:0}} 

time:            14000000, Input data: data_en:1, state:4

INPUT datain:6161655f61

Initial node:'{'{ascii_char:97, frequency:3, is_leaf_node:'h1, left_node:0, right_node:0}, '{ascii_char:101, frequency:1, is_leaf_node:'h1, left_node:0, right_node:0}, '{ascii_char:95, frequency:1, is_leaf_node:'h1, left_node:0, right_node:0}} 

time:            14000000, Input data: data_en:1, state:5

INPUT datain:6161655f61

Initial node:'{'{ascii_char:97, frequency:3, is_leaf_node:'h1, left_node:0, right_node:0}, '{ascii_char:101, frequency:1, is_leaf_node:'h1, left_node:0, right_node:0}, '{ascii_char:95, frequency:1, is_leaf_node:'h1, left_node:0, right_node:0}} 

time:            15000000, Input data: data_en:1, state:5

INPUT datain:6161655f61

Initial node:'{'{ascii_char:97, frequency:3, is_leaf_node:'h1, left_node:0, right_node:0}, '{ascii_char:101, frequency:1, is_leaf_node:'h1, left_node:0, right_node:0}, '{ascii_char:95, frequency:1, is_leaf_node:'h1, left_node:0, right_node:0}} 

time:            15000000, Input data: data_en:1, state:6

INPUT datain:6161655f61

Initial node:'{'{ascii_char:97, frequency:3, is_leaf_node:'h1, left_node:0, right_node:0}, '{ascii_char:101, frequency:1, is_leaf_node:'h1, left_node:0, right_node:0}, '{ascii_char:95, frequency:1, is_leaf_node:'h1, left_node:0, right_node:0}} 

time:            16000000, Input data: data_en:1, state:6

INPUT datain:6161655f61

Initial node:'{'{ascii_char:97, frequency:3, is_leaf_node:'h1, left_node:0, right_node:0}, '{ascii_char:101, frequency:1, is_leaf_node:'h1, left_node:0, right_node:0}, '{ascii_char:95, frequency:1, is_leaf_node:'h1, left_node:0, right_node:0}} 

time:            16000000, Input data: data_en:1, state:7

INPUT datain:6161655f61

Initial node:'{'{ascii_char:97, frequency:3, is_leaf_node:'h1, left_node:0, right_node:0}, '{ascii_char:101, frequency:1, is_leaf_node:'h1, left_node:0, right_node:0}, '{ascii_char:95, frequency:1, is_leaf_node:'h1, left_node:0, right_node:0}} 

time:            17000000, Input data: data_en:1, state:7

INPUT datain:6161655f61

Initial node:'{'{ascii_char:97, frequency:3, is_leaf_node:'h1, left_node:0, right_node:0}, '{ascii_char:101, frequency:1, is_leaf_node:'h1, left_node:0, right_node:0}, '{ascii_char:95, frequency:1, is_leaf_node:'h1, left_node:0, right_node:0}} 

binary_tree:  huff_tree[0]:'{ascii_char:z, frequency:0, is_leaf_node:'h0, left_node:0, right_node:0, parent:0, level:0}, encoded_mask_h[0]:000, encoded_values_h[0]:000

binary_tree:  huff_tree[1]:'{ascii_char:z, frequency:0, is_leaf_node:'h0, left_node:0, right_node:0, parent:0, level:0}, encoded_mask_h[1]:000, encoded_values_h[1]:000

binary_tree:  huff_tree[2]:'{ascii_char:293, frequency:5, is_leaf_node:'h0, left_node:196, right_node:97, parent:0, level:0}, encoded_mask_h[2]:000, encoded_values_h[2]:000

binary_tree:  huff_tree[3]:'{ascii_char:x, frequency:x, is_leaf_node:'hx, left_node:x, right_node:x, parent:0, level:0}, encoded_mask_h[3]:000, encoded_values_h[3]:001

binary_tree:  huff_tree[4]:'{ascii_char:196, frequency:2, is_leaf_node:'h0, left_node:95, right_node:101, parent:2, level:1}, encoded_mask_h[4]:001, encoded_values_h[4]:000

binary_tree:  huff_tree[5]:'{ascii_char:97, frequency:3, is_leaf_node:'h1, left_node:0, right_node:0, parent:2, level:1}, encoded_mask_h[5]:001, encoded_values_h[5]:001

OUTPUT character:a, encoded mask[0]:001, encoded values[0]:001, frequency[0]:  3

OUTPUT character: , encoded mask[1]:000, encoded values[1]:000, frequency[1]:  x

OUTPUT character: , encoded mask[2]:000, encoded values[2]:000, frequency[2]:  x

$finish called from file "huff_enc_tb.sv", line 48.
$finish at simulation time             17500000
Simulation complete, time is 17500000 ps.
Chronologic VCS simulator copyright 1991-2022
Contains Synopsys proprietary information.
Compiler version T-2022.06_Full64; Runtime version T-2022.06_Full64;  Apr  6 11:37 2023
VCD+ Writer T-2022.06_Full64 Copyright (c) 1991-2022 by Synopsys Inc.
The file '/afs/ece.cmu.edu/usr/araghave/18624/project/inter.vpd' was opened successfully.
time:                   0, Input data: data_en:x, state:x

INPUT datain:xxxxxxxxxx

Initial node:'{'{ascii_char:x, frequency:x, is_leaf_node:'hx, left_node:x, right_node:x}, '{ascii_char:x, frequency:x, is_leaf_node:'hx, left_node:x, right_node:x}, '{ascii_char:x, frequency:x, is_leaf_node:'hx, left_node:x, right_node:x}} 

time:             1000000, Input data: data_en:x, state:x

INPUT datain:xxxxxxxxxx

Initial node:'{'{ascii_char:x, frequency:x, is_leaf_node:'hx, left_node:x, right_node:x}, '{ascii_char:x, frequency:x, is_leaf_node:'hx, left_node:x, right_node:x}, '{ascii_char:x, frequency:x, is_leaf_node:'hx, left_node:x, right_node:x}} 

time:             1000000, Input data: data_en:x, state:0

INPUT datain:xxxxxxxxxx

Initial node:'{'{ascii_char:x, frequency:x, is_leaf_node:'hx, left_node:x, right_node:x}, '{ascii_char:x, frequency:x, is_leaf_node:'hx, left_node:x, right_node:x}, '{ascii_char:x, frequency:x, is_leaf_node:'hx, left_node:x, right_node:x}} 

time:             2000000, Input data: data_en:x, state:0

INPUT datain:xxxxxxxxxx

Initial node:'{'{ascii_char:x, frequency:x, is_leaf_node:'hx, left_node:x, right_node:x}, '{ascii_char:x, frequency:x, is_leaf_node:'hx, left_node:x, right_node:x}, '{ascii_char:x, frequency:x, is_leaf_node:'hx, left_node:x, right_node:x}} 

time:             5000000, Input data: data_en:1, state:0

INPUT datain:6161655f61

Initial node:'{'{ascii_char:x, frequency:x, is_leaf_node:'hx, left_node:x, right_node:x}, '{ascii_char:x, frequency:x, is_leaf_node:'hx, left_node:x, right_node:x}, '{ascii_char:x, frequency:x, is_leaf_node:'hx, left_node:x, right_node:x}} 

time:             6000000, Input data: data_en:1, state:1

INPUT datain:6161655f61

Initial node:'{'{ascii_char:x, frequency:x, is_leaf_node:'hx, left_node:x, right_node:x}, '{ascii_char:x, frequency:x, is_leaf_node:'hx, left_node:x, right_node:x}, '{ascii_char:x, frequency:x, is_leaf_node:'hx, left_node:x, right_node:x}} 

time:             7000000, Input data: data_en:1, state:1

INPUT datain:6161655f61

Initial node:'{'{ascii_char:97, frequency:3, is_leaf_node:'h1, left_node:0, right_node:0}, '{ascii_char:101, frequency:1, is_leaf_node:'h1, left_node:0, right_node:0}, '{ascii_char:95, frequency:1, is_leaf_node:'h1, left_node:0, right_node:0}} 

time:             7000000, Input data: data_en:1, state:2

INPUT datain:6161655f61

Initial node:'{'{ascii_char:97, frequency:3, is_leaf_node:'h1, left_node:0, right_node:0}, '{ascii_char:101, frequency:1, is_leaf_node:'h1, left_node:0, right_node:0}, '{ascii_char:95, frequency:1, is_leaf_node:'h1, left_node:0, right_node:0}} 

time:             8000000, Input data: data_en:1, state:3

INPUT datain:6161655f61

Initial node:'{'{ascii_char:97, frequency:3, is_leaf_node:'h1, left_node:0, right_node:0}, '{ascii_char:101, frequency:1, is_leaf_node:'h1, left_node:0, right_node:0}, '{ascii_char:95, frequency:1, is_leaf_node:'h1, left_node:0, right_node:0}} 

time:             9000000, Input data: data_en:1, state:4

INPUT datain:6161655f61

Initial node:'{'{ascii_char:97, frequency:3, is_leaf_node:'h1, left_node:0, right_node:0}, '{ascii_char:101, frequency:1, is_leaf_node:'h1, left_node:0, right_node:0}, '{ascii_char:95, frequency:1, is_leaf_node:'h1, left_node:0, right_node:0}} 

time:            10000000, Input data: data_en:1, state:3

INPUT datain:6161655f61

Initial node:'{'{ascii_char:97, frequency:3, is_leaf_node:'h1, left_node:0, right_node:0}, '{ascii_char:101, frequency:1, is_leaf_node:'h1, left_node:0, right_node:0}, '{ascii_char:95, frequency:1, is_leaf_node:'h1, left_node:0, right_node:0}} 

time:            11000000, Input data: data_en:1, state:4

INPUT datain:6161655f61

Initial node:'{'{ascii_char:97, frequency:3, is_leaf_node:'h1, left_node:0, right_node:0}, '{ascii_char:101, frequency:1, is_leaf_node:'h1, left_node:0, right_node:0}, '{ascii_char:95, frequency:1, is_leaf_node:'h1, left_node:0, right_node:0}} 

time:            12000000, Input data: data_en:1, state:4

INPUT datain:6161655f61

Initial node:'{'{ascii_char:97, frequency:3, is_leaf_node:'h1, left_node:0, right_node:0}, '{ascii_char:101, frequency:1, is_leaf_node:'h1, left_node:0, right_node:0}, '{ascii_char:95, frequency:1, is_leaf_node:'h1, left_node:0, right_node:0}} 

time:            12000000, Input data: data_en:1, state:3

INPUT datain:6161655f61

Initial node:'{'{ascii_char:97, frequency:3, is_leaf_node:'h1, left_node:0, right_node:0}, '{ascii_char:101, frequency:1, is_leaf_node:'h1, left_node:0, right_node:0}, '{ascii_char:95, frequency:1, is_leaf_node:'h1, left_node:0, right_node:0}} 

time:            13000000, Input data: data_en:1, state:4

INPUT datain:6161655f61

Initial node:'{'{ascii_char:97, frequency:3, is_leaf_node:'h1, left_node:0, right_node:0}, '{ascii_char:101, frequency:1, is_leaf_node:'h1, left_node:0, right_node:0}, '{ascii_char:95, frequency:1, is_leaf_node:'h1, left_node:0, right_node:0}} 

time:            14000000, Input data: data_en:1, state:4

INPUT datain:6161655f61

Initial node:'{'{ascii_char:97, frequency:3, is_leaf_node:'h1, left_node:0, right_node:0}, '{ascii_char:101, frequency:1, is_leaf_node:'h1, left_node:0, right_node:0}, '{ascii_char:95, frequency:1, is_leaf_node:'h1, left_node:0, right_node:0}} 

time:            14000000, Input data: data_en:1, state:5

INPUT datain:6161655f61

Initial node:'{'{ascii_char:97, frequency:3, is_leaf_node:'h1, left_node:0, right_node:0}, '{ascii_char:101, frequency:1, is_leaf_node:'h1, left_node:0, right_node:0}, '{ascii_char:95, frequency:1, is_leaf_node:'h1, left_node:0, right_node:0}} 

time:            15000000, Input data: data_en:1, state:5

INPUT datain:6161655f61

Initial node:'{'{ascii_char:97, frequency:3, is_leaf_node:'h1, left_node:0, right_node:0}, '{ascii_char:101, frequency:1, is_leaf_node:'h1, left_node:0, right_node:0}, '{ascii_char:95, frequency:1, is_leaf_node:'h1, left_node:0, right_node:0}} 

time:            15000000, Input data: data_en:1, state:6

INPUT datain:6161655f61

Initial node:'{'{ascii_char:97, frequency:3, is_leaf_node:'h1, left_node:0, right_node:0}, '{ascii_char:101, frequency:1, is_leaf_node:'h1, left_node:0, right_node:0}, '{ascii_char:95, frequency:1, is_leaf_node:'h1, left_node:0, right_node:0}} 

time:            16000000, Input data: data_en:1, state:6

INPUT datain:6161655f61

Initial node:'{'{ascii_char:97, frequency:3, is_leaf_node:'h1, left_node:0, right_node:0}, '{ascii_char:101, frequency:1, is_leaf_node:'h1, left_node:0, right_node:0}, '{ascii_char:95, frequency:1, is_leaf_node:'h1, left_node:0, right_node:0}} 

time:            16000000, Input data: data_en:1, state:7

INPUT datain:6161655f61

Initial node:'{'{ascii_char:97, frequency:3, is_leaf_node:'h1, left_node:0, right_node:0}, '{ascii_char:101, frequency:1, is_leaf_node:'h1, left_node:0, right_node:0}, '{ascii_char:95, frequency:1, is_leaf_node:'h1, left_node:0, right_node:0}} 

time:            17000000, Input data: data_en:1, state:7

INPUT datain:6161655f61

Initial node:'{'{ascii_char:97, frequency:3, is_leaf_node:'h1, left_node:0, right_node:0}, '{ascii_char:101, frequency:1, is_leaf_node:'h1, left_node:0, right_node:0}, '{ascii_char:95, frequency:1, is_leaf_node:'h1, left_node:0, right_node:0}} 

binary_tree:  huff_tree[0]:'{ascii_char:z, frequency:0, is_leaf_node:'h0, left_node:0, right_node:0, parent:0, level:0}, encoded_mask_h[0]:000, encoded_values_h[0]:000

binary_tree:  huff_tree[1]:'{ascii_char:z, frequency:0, is_leaf_node:'h0, left_node:0, right_node:0, parent:0, level:0}, encoded_mask_h[1]:000, encoded_values_h[1]:000

binary_tree:  huff_tree[2]:'{ascii_char:293, frequency:5, is_leaf_node:'h0, left_node:196, right_node:97, parent:0, level:0}, encoded_mask_h[2]:000, encoded_values_h[2]:000

binary_tree:  huff_tree[3]:'{ascii_char:x, frequency:x, is_leaf_node:'hx, left_node:x, right_node:x, parent:0, level:0}, encoded_mask_h[3]:000, encoded_values_h[3]:001

binary_tree:  huff_tree[4]:'{ascii_char:196, frequency:2, is_leaf_node:'h0, left_node:95, right_node:101, parent:2, level:1}, encoded_mask_h[4]:001, encoded_values_h[4]:000

binary_tree:  huff_tree[5]:'{ascii_char:97, frequency:3, is_leaf_node:'h1, left_node:0, right_node:0, parent:2, level:1}, encoded_mask_h[5]:001, encoded_values_h[5]:001

OUTPUT character:a, encoded mask[0]:001, encoded values[0]:001, frequency[0]:  3

OUTPUT character: , encoded mask[1]:000, encoded values[1]:000, frequency[1]:  x

OUTPUT character: , encoded mask[2]:000, encoded values[2]:000, frequency[2]:  x

$finish called from file "huff_enc_tb.sv", line 48.
$finish at simulation time             17500000
Simulation complete, time is 17500000 ps.
*** FATAL: Simulation stopped due to a runtime error (such as null object access) in the HDL code.  Please see above in the log for more details, and/or recompile with '-check_all' to get more information printed to the log.
The simulation cannot be continued. The current simulation state can be observed in DVE/UCLI.
---------------------------------------------

Simulation has just terminated due to a severe internal error:


Release = 'T-2022.06_Full64'  Architecture = 'linux64'  Program = 'DVE'

'35648016 35682754 33225057 43827979 33240352 43832504 43837960 43838204 33243191 33239546 33239730 33239756 33564132 33630718 33633505 33636265 33636428 31862646 28475052 28481588 26125590 26114249 26122106 26118780 28967233 30253103 45686285 45686551 46439567 28241171 46588476 46591048 46461734 28241322 45681012 45681128 45857546 45373453 45374329 36162865 35968329 45078021 45072692 45129951 20026410 45440041 45439914 20024982 19723954 15220935 46912553801045'

---------------------------------------------
===============================DVE Context================================
Command line: /afs/ece/support/synopsys/synopsys.release/T-Foundation/vcs/T-2022.06/gui/dve/linux64/bin/dve.exe -full64 -ucliplatform=linux64 -toolargs "-ucligui -toolexe simv  -pid 27699" -toolin /tmp/vcs_20230406153122_27657_araghave..stdin -toolout /tmp/vcs_20230406153122_27657_araghave..stdout
==========================================================================
