DVEfiles/crash_03.23-09.48/dve_gui.log
Chronologic VCS simulator copyright 1991-2022
Contains Synopsys proprietary information.
Compiler version T-2022.06_Full64; Runtime version T-2022.06_Full64;  Mar 23 09:43 2023
VCD+ Writer T-2022.06_Full64 Copyright (c) 1991-2022 by Synopsys Inc.
The file '/afs/ece.cmu.edu/usr/araghave/18624/project/inter.vpd' was opened successfully.
Count:          x

time:                   0, Input data: data_in:  x, data_en:x, cycle:          x, state:x

INPUT datain:'{'hxx, 'hxx, 'hxx, 'hxx, 'hxx} 

Initial node:'{'{ascii_char:x, frequency:x, is_leaf_node:'hx, left_node:x, right_node:x}, '{ascii_char:x, frequency:x, is_leaf_node:'hx, left_node:x, right_node:x}, '{ascii_char:x, frequency:x, is_leaf_node:'hx, left_node:x, right_node:x}, '{ascii_char:x, frequency:x, is_leaf_node:'hx, left_node:x, right_node:x}, '{ascii_char:x, frequency:x, is_leaf_node:'hx, left_node:x, right_node:x}} 

node:'{'{ascii_char:x, frequency:x, is_leaf_node:'hx, left_node:x, right_node:x}, '{ascii_char:x, frequency:x, is_leaf_node:'hx, left_node:x, right_node:x}, '{ascii_char:x, frequency:x, is_leaf_node:'hx, left_node:x, right_node:x}, '{ascii_char:x, frequency:x, is_leaf_node:'hx, left_node:x, right_node:x}, '{ascii_char:x, frequency:x, is_leaf_node:'hx, left_node:x, right_node:x}} 

binary_tree:  huff_tree[0]:'{ascii_char:x, frequency:x, is_leaf_node:'hx, left_node:x, right_node:x, parent:x, level:x}

binary_tree:  huff_tree[1]:'{ascii_char:x, frequency:x, is_leaf_node:'hx, left_node:x, right_node:x, parent:x, level:x}

binary_tree:  huff_tree[2]:'{ascii_char:x, frequency:x, is_leaf_node:'hx, left_node:x, right_node:x, parent:x, level:x}

binary_tree:  huff_tree[3]:'{ascii_char:x, frequency:x, is_leaf_node:'hx, left_node:x, right_node:x, parent:x, level:x}

binary_tree:  huff_tree[4]:'{ascii_char:x, frequency:x, is_leaf_node:'hx, left_node:x, right_node:x, parent:x, level:x}

binary_tree:  huff_tree[5]:'{ascii_char:x, frequency:x, is_leaf_node:'hx, left_node:x, right_node:x, parent:x, level:x}

binary_tree:  huff_tree[6]:'{ascii_char:x, frequency:x, is_leaf_node:'hx, left_node:x, right_node:x, parent:x, level:x}

binary_tree:  huff_tree[7]:'{ascii_char:x, frequency:x, is_leaf_node:'hx, left_node:x, right_node:x, parent:x, level:x}

binary_tree:  huff_tree[8]:'{ascii_char:x, frequency:x, is_leaf_node:'hx, left_node:x, right_node:x, parent:x, level:x}

binary_tree:  huff_tree[9]:'{ascii_char:x, frequency:x, is_leaf_node:'hx, left_node:x, right_node:x, parent:x, level:x}

Count:          x

time:                  20, Input data: data_in:  x, data_en:1, cycle:          x, state:x

INPUT datain:'{'hxx, 'hxx, 'hxx, 'hxx, 'hxx} 

Initial node:'{'{ascii_char:x, frequency:x, is_leaf_node:'hx, left_node:x, right_node:x}, '{ascii_char:x, frequency:x, is_leaf_node:'hx, left_node:x, right_node:x}, '{ascii_char:x, frequency:x, is_leaf_node:'hx, left_node:x, right_node:x}, '{ascii_char:x, frequency:x, is_leaf_node:'hx, left_node:x, right_node:x}, '{ascii_char:x, frequency:x, is_leaf_node:'hx, left_node:x, right_node:x}} 

node:'{'{ascii_char:x, frequency:x, is_leaf_node:'hx, left_node:x, right_node:x}, '{ascii_char:x, frequency:x, is_leaf_node:'hx, left_node:x, right_node:x}, '{ascii_char:x, frequency:x, is_leaf_node:'hx, left_node:x, right_node:x}, '{ascii_char:x, frequency:x, is_leaf_node:'hx, left_node:x, right_node:x}, '{ascii_char:x, frequency:x, is_leaf_node:'hx, left_node:x, right_node:x}} 

binary_tree:  huff_tree[0]:'{ascii_char:x, frequency:x, is_leaf_node:'hx, left_node:x, right_node:x, parent:x, level:x}

binary_tree:  huff_tree[1]:'{ascii_char:x, frequency:x, is_leaf_node:'hx, left_node:x, right_node:x, parent:x, level:x}

binary_tree:  huff_tree[2]:'{ascii_char:x, frequency:x, is_leaf_node:'hx, left_node:x, right_node:x, parent:x, level:x}

binary_tree:  huff_tree[3]:'{ascii_char:x, frequency:x, is_leaf_node:'hx, left_node:x, right_node:x, parent:x, level:x}

binary_tree:  huff_tree[4]:'{ascii_char:x, frequency:x, is_leaf_node:'hx, left_node:x, right_node:x, parent:x, level:x}

binary_tree:  huff_tree[5]:'{ascii_char:x, frequency:x, is_leaf_node:'hx, left_node:x, right_node:x, parent:x, level:x}

binary_tree:  huff_tree[6]:'{ascii_char:x, frequency:x, is_leaf_node:'hx, left_node:x, right_node:x, parent:x, level:x}

binary_tree:  huff_tree[7]:'{ascii_char:x, frequency:x, is_leaf_node:'hx, left_node:x, right_node:x, parent:x, level:x}

binary_tree:  huff_tree[8]:'{ascii_char:x, frequency:x, is_leaf_node:'hx, left_node:x, right_node:x, parent:x, level:x}

binary_tree:  huff_tree[9]:'{ascii_char:x, frequency:x, is_leaf_node:'hx, left_node:x, right_node:x, parent:x, level:x}

Count:          x

time:                  20, Input data: data_in:  x, data_en:1, cycle:          x, state:0

INPUT datain:'{'hxx, 'hxx, 'hxx, 'hxx, 'hxx} 

Initial node:'{'{ascii_char:X, frequency:1, is_leaf_node:'h1, left_node:0, right_node:0}, '{ascii_char:X, frequency:1, is_leaf_node:'h1, left_node:0, right_node:0}, '{ascii_char:X, frequency:1, is_leaf_node:'h1, left_node:0, right_node:0}, '{ascii_char:X, frequency:1, is_leaf_node:'h1, left_node:0, right_node:0}, '{ascii_char:X, frequency:1, is_leaf_node:'h1, left_node:0, right_node:0}} 

node:'{'{ascii_char:x, frequency:x, is_leaf_node:'hx, left_node:x, right_node:x}, '{ascii_char:x, frequency:x, is_leaf_node:'hx, left_node:x, right_node:x}, '{ascii_char:x, frequency:x, is_leaf_node:'hx, left_node:x, right_node:x}, '{ascii_char:x, frequency:x, is_leaf_node:'hx, left_node:x, right_node:x}, '{ascii_char:x, frequency:x, is_leaf_node:'hx, left_node:x, right_node:x}} 

binary_tree:  huff_tree[0]:'{ascii_char:x, frequency:x, is_leaf_node:'hx, left_node:x, right_node:x, parent:x, level:x}

binary_tree:  huff_tree[1]:'{ascii_char:x, frequency:x, is_leaf_node:'hx, left_node:x, right_node:x, parent:x, level:x}

binary_tree:  huff_tree[2]:'{ascii_char:x, frequency:x, is_leaf_node:'hx, left_node:x, right_node:x, parent:x, level:x}

binary_tree:  huff_tree[3]:'{ascii_char:x, frequency:x, is_leaf_node:'hx, left_node:x, right_node:x, parent:x, level:x}

binary_tree:  huff_tree[4]:'{ascii_char:x, frequency:x, is_leaf_node:'hx, left_node:x, right_node:x, parent:x, level:x}

binary_tree:  huff_tree[5]:'{ascii_char:x, frequency:x, is_leaf_node:'hx, left_node:x, right_node:x, parent:x, level:x}

binary_tree:  huff_tree[6]:'{ascii_char:x, frequency:x, is_leaf_node:'hx, left_node:x, right_node:x, parent:x, level:x}

binary_tree:  huff_tree[7]:'{ascii_char:x, frequency:x, is_leaf_node:'hx, left_node:x, right_node:x, parent:x, level:x}

binary_tree:  huff_tree[8]:'{ascii_char:x, frequency:x, is_leaf_node:'hx, left_node:x, right_node:x, parent:x, level:x}

binary_tree:  huff_tree[9]:'{ascii_char:x, frequency:x, is_leaf_node:'hx, left_node:x, right_node:x, parent:x, level:x}

Count:          x

time:                  20, Input data: data_in:  x, data_en:1, cycle:          x, state:0

INPUT datain:'{'hxx, 'hxx, 'hxx, 'hxx, 'hxx} 

Initial node:'{'{ascii_char:X, frequency:1, is_leaf_node:'h1, left_node:0, right_node:0}, '{ascii_char:X, frequency:1, is_leaf_node:'h1, left_node:0, right_node:0}, '{ascii_char:X, frequency:1, is_leaf_node:'h1, left_node:0, right_node:0}, '{ascii_char:X, frequency:1, is_leaf_node:'h1, left_node:0, right_node:0}, '{ascii_char:X, frequency:1, is_leaf_node:'h1, left_node:0, right_node:0}} 

node:'{'{ascii_char:x, frequency:x, is_leaf_node:'hx, left_node:x, right_node:x}, '{ascii_char:x, frequency:x, is_leaf_node:'hx, left_node:x, right_node:x}, '{ascii_char:x, frequency:x, is_leaf_node:'hx, left_node:x, right_node:x}, '{ascii_char:x, frequency:x, is_leaf_node:'hx, left_node:x, right_node:x}, '{ascii_char:x, frequency:x, is_leaf_node:'hx, left_node:x, right_node:x}} 

binary_tree:  huff_tree[0]:'{ascii_char:x, frequency:x, is_leaf_node:'hx, left_node:x, right_node:x, parent:x, level:x}

binary_tree:  huff_tree[1]:'{ascii_char:x, frequency:x, is_leaf_node:'hx, left_node:x, right_node:x, parent:x, level:x}

binary_tree:  huff_tree[2]:'{ascii_char:x, frequency:x, is_leaf_node:'hx, left_node:x, right_node:x, parent:x, level:x}

binary_tree:  huff_tree[3]:'{ascii_char:x, frequency:x, is_leaf_node:'hx, left_node:x, right_node:x, parent:x, level:x}

binary_tree:  huff_tree[4]:'{ascii_char:x, frequency:x, is_leaf_node:'hx, left_node:x, right_node:x, parent:x, level:x}

binary_tree:  huff_tree[5]:'{ascii_char:x, frequency:x, is_leaf_node:'hx, left_node:x, right_node:x, parent:x, level:x}

binary_tree:  huff_tree[6]:'{ascii_char:x, frequency:x, is_leaf_node:'hx, left_node:x, right_node:x, parent:x, level:x}

binary_tree:  huff_tree[7]:'{ascii_char:x, frequency:x, is_leaf_node:'hx, left_node:x, right_node:x, parent:x, level:x}

binary_tree:  huff_tree[8]:'{ascii_char:x, frequency:x, is_leaf_node:'hx, left_node:x, right_node:x, parent:x, level:x}

binary_tree:  huff_tree[9]:'{ascii_char:x, frequency:x, is_leaf_node:'hx, left_node:x, right_node:x, parent:x, level:x}

Count:          x

time:                  60, Input data: data_in:  x, data_en:1, cycle:          x, state:1

INPUT datain:'{'hxx, 'hxx, 'hxx, 'hxx, 'hxx} 

Initial node:'{'{ascii_char:X, frequency:1, is_leaf_node:'h1, left_node:0, right_node:0}, '{ascii_char:X, frequency:1, is_leaf_node:'h1, left_node:0, right_node:0}, '{ascii_char:X, frequency:1, is_leaf_node:'h1, left_node:0, right_node:0}, '{ascii_char:X, frequency:1, is_leaf_node:'h1, left_node:0, right_node:0}, '{ascii_char:X, frequency:1, is_leaf_node:'h1, left_node:0, right_node:0}} 

node:'{'{ascii_char:0, frequency:0, is_leaf_node:'h1, left_node:0, right_node:0}, '{ascii_char:0, frequency:0, is_leaf_node:'h1, left_node:0, right_node:0}, '{ascii_char:0, frequency:0, is_leaf_node:'h1, left_node:0, right_node:0}, '{ascii_char:0, frequency:0, is_leaf_node:'h1, left_node:0, right_node:0}, '{ascii_char:0, frequency:0, is_leaf_node:'h1, left_node:0, right_node:0}} 

binary_tree:  huff_tree[0]:'{ascii_char:z, frequency:0, is_leaf_node:'h0, left_node:0, right_node:0, parent:0, level:0}

binary_tree:  huff_tree[1]:'{ascii_char:z, frequency:0, is_leaf_node:'h0, left_node:0, right_node:0, parent:0, level:0}

binary_tree:  huff_tree[2]:'{ascii_char:z, frequency:0, is_leaf_node:'h0, left_node:0, right_node:0, parent:0, level:0}

binary_tree:  huff_tree[3]:'{ascii_char:z, frequency:0, is_leaf_node:'h0, left_node:0, right_node:0, parent:0, level:0}

binary_tree:  huff_tree[4]:'{ascii_char:z, frequency:0, is_leaf_node:'h0, left_node:0, right_node:0, parent:0, level:0}

binary_tree:  huff_tree[5]:'{ascii_char:z, frequency:0, is_leaf_node:'h0, left_node:0, right_node:0, parent:0, level:0}

binary_tree:  huff_tree[6]:'{ascii_char:z, frequency:0, is_leaf_node:'h0, left_node:0, right_node:0, parent:0, level:0}

binary_tree:  huff_tree[7]:'{ascii_char:z, frequency:0, is_leaf_node:'h0, left_node:0, right_node:0, parent:0, level:0}

binary_tree:  huff_tree[8]:'{ascii_char:z, frequency:0, is_leaf_node:'h0, left_node:0, right_node:0, parent:0, level:0}

binary_tree:  huff_tree[9]:'{ascii_char:z, frequency:0, is_leaf_node:'h0, left_node:0, right_node:0, parent:0, level:0}

Count:          x

time:                 100, Input data: data_in:  x, data_en:1, cycle:          x, state:2

INPUT datain:'{'h61, 'h65, 'h20, 'h61, 'h61} 

Initial node:'{'{ascii_char:97, frequency:3, is_leaf_node:'h1, left_node:0, right_node:0}, '{ascii_char:101, frequency:1, is_leaf_node:'h1, left_node:0, right_node:0}, '{ascii_char:32, frequency:1, is_leaf_node:'h1, left_node:0, right_node:0}, '{ascii_char:0, frequency:0, is_leaf_node:'h1, left_node:0, right_node:0}, '{ascii_char:X, frequency:1, is_leaf_node:'h1, left_node:0, right_node:0}} 

node:'{'{ascii_char:0, frequency:0, is_leaf_node:'h1, left_node:0, right_node:0}, '{ascii_char:0, frequency:0, is_leaf_node:'h1, left_node:0, right_node:0}, '{ascii_char:0, frequency:0, is_leaf_node:'h1, left_node:0, right_node:0}, '{ascii_char:0, frequency:0, is_leaf_node:'h1, left_node:0, right_node:0}, '{ascii_char:0, frequency:0, is_leaf_node:'h1, left_node:0, right_node:0}} 

binary_tree:  huff_tree[0]:'{ascii_char:z, frequency:0, is_leaf_node:'h0, left_node:0, right_node:0, parent:0, level:0}

binary_tree:  huff_tree[1]:'{ascii_char:z, frequency:0, is_leaf_node:'h0, left_node:0, right_node:0, parent:0, level:0}

binary_tree:  huff_tree[2]:'{ascii_char:z, frequency:0, is_leaf_node:'h0, left_node:0, right_node:0, parent:0, level:0}

binary_tree:  huff_tree[3]:'{ascii_char:z, frequency:0, is_leaf_node:'h0, left_node:0, right_node:0, parent:0, level:0}

binary_tree:  huff_tree[4]:'{ascii_char:z, frequency:0, is_leaf_node:'h0, left_node:0, right_node:0, parent:0, level:0}

binary_tree:  huff_tree[5]:'{ascii_char:z, frequency:0, is_leaf_node:'h0, left_node:0, right_node:0, parent:0, level:0}

binary_tree:  huff_tree[6]:'{ascii_char:z, frequency:0, is_leaf_node:'h0, left_node:0, right_node:0, parent:0, level:0}

binary_tree:  huff_tree[7]:'{ascii_char:z, frequency:0, is_leaf_node:'h0, left_node:0, right_node:0, parent:0, level:0}

binary_tree:  huff_tree[8]:'{ascii_char:z, frequency:0, is_leaf_node:'h0, left_node:0, right_node:0, parent:0, level:0}

binary_tree:  huff_tree[9]:'{ascii_char:z, frequency:0, is_leaf_node:'h0, left_node:0, right_node:0, parent:0, level:0}

Count:          x

time:                 100, Input data: data_in:  x, data_en:1, cycle:          x, state:2

INPUT datain:'{'h61, 'h65, 'h20, 'h61, 'h61} 

Initial node:'{'{ascii_char:97, frequency:3, is_leaf_node:'h1, left_node:0, right_node:0}, '{ascii_char:101, frequency:1, is_leaf_node:'h1, left_node:0, right_node:0}, '{ascii_char:32, frequency:1, is_leaf_node:'h1, left_node:0, right_node:0}, '{ascii_char:0, frequency:0, is_leaf_node:'h1, left_node:0, right_node:0}, '{ascii_char:X, frequency:1, is_leaf_node:'h1, left_node:0, right_node:0}} 

node:'{'{ascii_char:0, frequency:0, is_leaf_node:'h1, left_node:0, right_node:0}, '{ascii_char:0, frequency:0, is_leaf_node:'h1, left_node:0, right_node:0}, '{ascii_char:0, frequency:0, is_leaf_node:'h1, left_node:0, right_node:0}, '{ascii_char:0, frequency:0, is_leaf_node:'h1, left_node:0, right_node:0}, '{ascii_char:0, frequency:0, is_leaf_node:'h1, left_node:0, right_node:0}} 

in_huff_tree[0]:'{'{ascii_char:x, frequency:x, is_leaf_node:'hx, left_node:x, right_node:x}, '{ascii_char:x, frequency:x, is_leaf_node:'hx, left_node:x, right_node:x}, '{ascii_char:x, frequency:x, is_leaf_node:'hx, left_node:x, right_node:x}, '{ascii_char:x, frequency:x, is_leaf_node:'hx, left_node:x, right_node:x}, '{ascii_char:x, frequency:x, is_leaf_node:'hx, left_node:x, right_node:x}} 




out_huff_tree[0]:'{'{ascii_char:x, frequency:x, is_leaf_node:'hx, left_node:x, right_node:x}, '{ascii_char:x, frequency:x, is_leaf_node:'hx, left_node:x, right_node:x}, '{ascii_char:x, frequency:x, is_leaf_node:'hx, left_node:x, right_node:x}, '{ascii_char:x, frequency:x, is_leaf_node:'hx, left_node:x, right_node:x}, '{ascii_char:x, frequency:x, is_leaf_node:'hx, left_node:x, right_node:x}, '{ascii_char:x, frequency:x, is_leaf_node:'hx, left_node:x, right_node:x}} 


in_huff_tree[1]:'{'{ascii_char:x, frequency:x, is_leaf_node:'hx, left_node:x, right_node:x}, '{ascii_char:x, frequency:x, is_leaf_node:'hx, left_node:x, right_node:x}, '{ascii_char:x, frequency:x, is_leaf_node:'hx, left_node:x, right_node:x}, '{ascii_char:x, frequency:x, is_leaf_node:'hx, left_node:x, right_node:x}, '{ascii_char:x, frequency:x, is_leaf_node:'hx, left_node:x, right_node:x}} 




out_huff_tree[1]:'{'{ascii_char:x, frequency:x, is_leaf_node:'hx, left_node:x, right_node:x}, '{ascii_char:x, frequency:x, is_leaf_node:'hx, left_node:x, right_node:x}, '{ascii_char:x, frequency:x, is_leaf_node:'hx, left_node:x, right_node:x}, '{ascii_char:x, frequency:x, is_leaf_node:'hx, left_node:x, right_node:x}, '{ascii_char:x, frequency:x, is_leaf_node:'hx, left_node:x, right_node:x}, '{ascii_char:x, frequency:x, is_leaf_node:'hx, left_node:x, right_node:x}} 


in_huff_tree[2]:'{'{ascii_char:x, frequency:x, is_leaf_node:'hx, left_node:x, right_node:x}, '{ascii_char:x, frequency:x, is_leaf_node:'hx, left_node:x, right_node:x}, '{ascii_char:x, frequency:x, is_leaf_node:'hx, left_node:x, right_node:x}, '{ascii_char:x, frequency:x, is_leaf_node:'hx, left_node:x, right_node:x}, '{ascii_char:x, frequency:x, is_leaf_node:'hx, left_node:x, right_node:x}} 




out_huff_tree[2]:'{'{ascii_char:x, frequency:x, is_leaf_node:'hx, left_node:x, right_node:x}, '{ascii_char:x, frequency:x, is_leaf_node:'hx, left_node:x, right_node:x}, '{ascii_char:x, frequency:x, is_leaf_node:'hx, left_node:x, right_node:x}, '{ascii_char:x, frequency:x, is_leaf_node:'hx, left_node:x, right_node:x}, '{ascii_char:x, frequency:x, is_leaf_node:'hx, left_node:x, right_node:x}, '{ascii_char:x, frequency:x, is_leaf_node:'hx, left_node:x, right_node:x}} 


binary_tree:  huff_tree[0]:'{ascii_char:z, frequency:0, is_leaf_node:'h0, left_node:0, right_node:0, parent:0, level:0}

binary_tree:  huff_tree[1]:'{ascii_char:z, frequency:0, is_leaf_node:'h0, left_node:0, right_node:0, parent:0, level:0}

binary_tree:  huff_tree[2]:'{ascii_char:z, frequency:0, is_leaf_node:'h0, left_node:0, right_node:0, parent:0, level:0}

binary_tree:  huff_tree[3]:'{ascii_char:z, frequency:0, is_leaf_node:'h0, left_node:0, right_node:0, parent:0, level:0}

binary_tree:  huff_tree[4]:'{ascii_char:z, frequency:0, is_leaf_node:'h0, left_node:0, right_node:0, parent:0, level:0}

binary_tree:  huff_tree[5]:'{ascii_char:z, frequency:0, is_leaf_node:'h0, left_node:0, right_node:0, parent:0, level:0}

binary_tree:  huff_tree[6]:'{ascii_char:z, frequency:0, is_leaf_node:'h0, left_node:0, right_node:0, parent:0, level:0}

binary_tree:  huff_tree[7]:'{ascii_char:z, frequency:0, is_leaf_node:'h0, left_node:0, right_node:0, parent:0, level:0}

binary_tree:  huff_tree[8]:'{ascii_char:z, frequency:0, is_leaf_node:'h0, left_node:0, right_node:0, parent:0, level:0}

binary_tree:  huff_tree[9]:'{ascii_char:z, frequency:0, is_leaf_node:'h0, left_node:0, right_node:0, parent:0, level:0}

Count:          x

time:                 120, Input data: data_in:  x, data_en:0, cycle:          x, state:2

INPUT datain:'{'h61, 'h65, 'h20, 'h61, 'h61} 

Initial node:'{'{ascii_char:97, frequency:3, is_leaf_node:'h1, left_node:0, right_node:0}, '{ascii_char:101, frequency:1, is_leaf_node:'h1, left_node:0, right_node:0}, '{ascii_char:32, frequency:1, is_leaf_node:'h1, left_node:0, right_node:0}, '{ascii_char:0, frequency:0, is_leaf_node:'h1, left_node:0, right_node:0}, '{ascii_char:X, frequency:1, is_leaf_node:'h1, left_node:0, right_node:0}} 

node:'{'{ascii_char:0, frequency:0, is_leaf_node:'h1, left_node:0, right_node:0}, '{ascii_char:0, frequency:0, is_leaf_node:'h1, left_node:0, right_node:0}, '{ascii_char:0, frequency:0, is_leaf_node:'h1, left_node:0, right_node:0}, '{ascii_char:0, frequency:0, is_leaf_node:'h1, left_node:0, right_node:0}, '{ascii_char:0, frequency:0, is_leaf_node:'h1, left_node:0, right_node:0}} 

in_huff_tree[0]:'{'{ascii_char:x, frequency:x, is_leaf_node:'hx, left_node:x, right_node:x}, '{ascii_char:x, frequency:x, is_leaf_node:'hx, left_node:x, right_node:x}, '{ascii_char:x, frequency:x, is_leaf_node:'hx, left_node:x, right_node:x}, '{ascii_char:x, frequency:x, is_leaf_node:'hx, left_node:x, right_node:x}, '{ascii_char:x, frequency:x, is_leaf_node:'hx, left_node:x, right_node:x}} 




out_huff_tree[0]:'{'{ascii_char:x, frequency:x, is_leaf_node:'hx, left_node:x, right_node:x}, '{ascii_char:x, frequency:x, is_leaf_node:'hx, left_node:x, right_node:x}, '{ascii_char:x, frequency:x, is_leaf_node:'hx, left_node:x, right_node:x}, '{ascii_char:x, frequency:x, is_leaf_node:'hx, left_node:x, right_node:x}, '{ascii_char:x, frequency:x, is_leaf_node:'hx, left_node:x, right_node:x}, '{ascii_char:x, frequency:x, is_leaf_node:'hx, left_node:x, right_node:x}} 


in_huff_tree[1]:'{'{ascii_char:x, frequency:x, is_leaf_node:'hx, left_node:x, right_node:x}, '{ascii_char:x, frequency:x, is_leaf_node:'hx, left_node:x, right_node:x}, '{ascii_char:x, frequency:x, is_leaf_node:'hx, left_node:x, right_node:x}, '{ascii_char:x, frequency:x, is_leaf_node:'hx, left_node:x, right_node:x}, '{ascii_char:x, frequency:x, is_leaf_node:'hx, left_node:x, right_node:x}} 




out_huff_tree[1]:'{'{ascii_char:x, frequency:x, is_leaf_node:'hx, left_node:x, right_node:x}, '{ascii_char:x, frequency:x, is_leaf_node:'hx, left_node:x, right_node:x}, '{ascii_char:x, frequency:x, is_leaf_node:'hx, left_node:x, right_node:x}, '{ascii_char:x, frequency:x, is_leaf_node:'hx, left_node:x, right_node:x}, '{ascii_char:x, frequency:x, is_leaf_node:'hx, left_node:x, right_node:x}, '{ascii_char:x, frequency:x, is_leaf_node:'hx, left_node:x, right_node:x}} 


in_huff_tree[2]:'{'{ascii_char:x, frequency:x, is_leaf_node:'hx, left_node:x, right_node:x}, '{ascii_char:x, frequency:x, is_leaf_node:'hx, left_node:x, right_node:x}, '{ascii_char:x, frequency:x, is_leaf_node:'hx, left_node:x, right_node:x}, '{ascii_char:x, frequency:x, is_leaf_node:'hx, left_node:x, right_node:x}, '{ascii_char:x, frequency:x, is_leaf_node:'hx, left_node:x, right_node:x}} 




out_huff_tree[2]:'{'{ascii_char:x, frequency:x, is_leaf_node:'hx, left_node:x, right_node:x}, '{ascii_char:x, frequency:x, is_leaf_node:'hx, left_node:x, right_node:x}, '{ascii_char:x, frequency:x, is_leaf_node:'hx, left_node:x, right_node:x}, '{ascii_char:x, frequency:x, is_leaf_node:'hx, left_node:x, right_node:x}, '{ascii_char:x, frequency:x, is_leaf_node:'hx, left_node:x, right_node:x}, '{ascii_char:x, frequency:x, is_leaf_node:'hx, left_node:x, right_node:x}} 


binary_tree:  huff_tree[0]:'{ascii_char:z, frequency:0, is_leaf_node:'h0, left_node:0, right_node:0, parent:0, level:0}

binary_tree:  huff_tree[1]:'{ascii_char:z, frequency:0, is_leaf_node:'h0, left_node:0, right_node:0, parent:0, level:0}

binary_tree:  huff_tree[2]:'{ascii_char:z, frequency:0, is_leaf_node:'h0, left_node:0, right_node:0, parent:0, level:0}

binary_tree:  huff_tree[3]:'{ascii_char:z, frequency:0, is_leaf_node:'h0, left_node:0, right_node:0, parent:0, level:0}

binary_tree:  huff_tree[4]:'{ascii_char:z, frequency:0, is_leaf_node:'h0, left_node:0, right_node:0, parent:0, level:0}

binary_tree:  huff_tree[5]:'{ascii_char:z, frequency:0, is_leaf_node:'h0, left_node:0, right_node:0, parent:0, level:0}

binary_tree:  huff_tree[6]:'{ascii_char:z, frequency:0, is_leaf_node:'h0, left_node:0, right_node:0, parent:0, level:0}

binary_tree:  huff_tree[7]:'{ascii_char:z, frequency:0, is_leaf_node:'h0, left_node:0, right_node:0, parent:0, level:0}

binary_tree:  huff_tree[8]:'{ascii_char:z, frequency:0, is_leaf_node:'h0, left_node:0, right_node:0, parent:0, level:0}

binary_tree:  huff_tree[9]:'{ascii_char:z, frequency:0, is_leaf_node:'h0, left_node:0, right_node:0, parent:0, level:0}

Input data: data:  x

Count:          3

time:                 140, Input data: data_in:  x, data_en:0, cycle:          x, state:3

INPUT datain:'{'h61, 'h65, 'h20, 'h61, 'h61} 

Initial node:'{'{ascii_char:97, frequency:3, is_leaf_node:'h1, left_node:0, right_node:0}, '{ascii_char:101, frequency:1, is_leaf_node:'h1, left_node:0, right_node:0}, '{ascii_char:32, frequency:1, is_leaf_node:'h1, left_node:0, right_node:0}, '{ascii_char:0, frequency:0, is_leaf_node:'h1, left_node:0, right_node:0}, '{ascii_char:X, frequency:1, is_leaf_node:'h1, left_node:0, right_node:0}} 

node:'{'{ascii_char:97, frequency:3, is_leaf_node:'h1, left_node:0, right_node:0}, '{ascii_char:101, frequency:1, is_leaf_node:'h1, left_node:0, right_node:0}, '{ascii_char:32, frequency:1, is_leaf_node:'h1, left_node:0, right_node:0}, '{ascii_char:0, frequency:0, is_leaf_node:'h1, left_node:0, right_node:0}, '{ascii_char:X, frequency:1, is_leaf_node:'h1, left_node:0, right_node:0}} 

in_huff_tree[0]:'{'{ascii_char:x, frequency:x, is_leaf_node:'hx, left_node:x, right_node:x}, '{ascii_char:x, frequency:x, is_leaf_node:'hx, left_node:x, right_node:x}, '{ascii_char:x, frequency:x, is_leaf_node:'hx, left_node:x, right_node:x}, '{ascii_char:x, frequency:x, is_leaf_node:'hx, left_node:x, right_node:x}, '{ascii_char:x, frequency:x, is_leaf_node:'hx, left_node:x, right_node:x}} 




out_huff_tree[0]:'{'{ascii_char:x, frequency:x, is_leaf_node:'hx, left_node:x, right_node:x}, '{ascii_char:x, frequency:x, is_leaf_node:'hx, left_node:x, right_node:x}, '{ascii_char:x, frequency:x, is_leaf_node:'hx, left_node:x, right_node:x}, '{ascii_char:x, frequency:x, is_leaf_node:'hx, left_node:x, right_node:x}, '{ascii_char:x, frequency:x, is_leaf_node:'hx, left_node:x, right_node:x}, '{ascii_char:x, frequency:x, is_leaf_node:'hx, left_node:x, right_node:x}} 


in_huff_tree[1]:'{'{ascii_char:x, frequency:x, is_leaf_node:'hx, left_node:x, right_node:x}, '{ascii_char:x, frequency:x, is_leaf_node:'hx, left_node:x, right_node:x}, '{ascii_char:x, frequency:x, is_leaf_node:'hx, left_node:x, right_node:x}, '{ascii_char:x, frequency:x, is_leaf_node:'hx, left_node:x, right_node:x}, '{ascii_char:x, frequency:x, is_leaf_node:'hx, left_node:x, right_node:x}} 




out_huff_tree[1]:'{'{ascii_char:x, frequency:x, is_leaf_node:'hx, left_node:x, right_node:x}, '{ascii_char:x, frequency:x, is_leaf_node:'hx, left_node:x, right_node:x}, '{ascii_char:x, frequency:x, is_leaf_node:'hx, left_node:x, right_node:x}, '{ascii_char:x, frequency:x, is_leaf_node:'hx, left_node:x, right_node:x}, '{ascii_char:x, frequency:x, is_leaf_node:'hx, left_node:x, right_node:x}, '{ascii_char:x, frequency:x, is_leaf_node:'hx, left_node:x, right_node:x}} 


in_huff_tree[2]:'{'{ascii_char:x, frequency:x, is_leaf_node:'hx, left_node:x, right_node:x}, '{ascii_char:x, frequency:x, is_leaf_node:'hx, left_node:x, right_node:x}, '{ascii_char:x, frequency:x, is_leaf_node:'hx, left_node:x, right_node:x}, '{ascii_char:x, frequency:x, is_leaf_node:'hx, left_node:x, right_node:x}, '{ascii_char:x, frequency:x, is_leaf_node:'hx, left_node:x, right_node:x}} 




out_huff_tree[2]:'{'{ascii_char:x, frequency:x, is_leaf_node:'hx, left_node:x, right_node:x}, '{ascii_char:x, frequency:x, is_leaf_node:'hx, left_node:x, right_node:x}, '{ascii_char:x, frequency:x, is_leaf_node:'hx, left_node:x, right_node:x}, '{ascii_char:x, frequency:x, is_leaf_node:'hx, left_node:x, right_node:x}, '{ascii_char:x, frequency:x, is_leaf_node:'hx, left_node:x, right_node:x}, '{ascii_char:x, frequency:x, is_leaf_node:'hx, left_node:x, right_node:x}} 


binary_tree:  huff_tree[0]:'{ascii_char:z, frequency:0, is_leaf_node:'h0, left_node:0, right_node:0, parent:0, level:0}

binary_tree:  huff_tree[1]:'{ascii_char:z, frequency:0, is_leaf_node:'h0, left_node:0, right_node:0, parent:0, level:0}

binary_tree:  huff_tree[2]:'{ascii_char:z, frequency:0, is_leaf_node:'h0, left_node:0, right_node:0, parent:0, level:0}

binary_tree:  huff_tree[3]:'{ascii_char:z, frequency:0, is_leaf_node:'h0, left_node:0, right_node:0, parent:0, level:0}

binary_tree:  huff_tree[4]:'{ascii_char:z, frequency:0, is_leaf_node:'h0, left_node:0, right_node:0, parent:0, level:0}

binary_tree:  huff_tree[5]:'{ascii_char:z, frequency:0, is_leaf_node:'h0, left_node:0, right_node:0, parent:0, level:0}

binary_tree:  huff_tree[6]:'{ascii_char:z, frequency:0, is_leaf_node:'h0, left_node:0, right_node:0, parent:0, level:0}

binary_tree:  huff_tree[7]:'{ascii_char:z, frequency:0, is_leaf_node:'h0, left_node:0, right_node:0, parent:0, level:0}

binary_tree:  huff_tree[8]:'{ascii_char:z, frequency:0, is_leaf_node:'h0, left_node:0, right_node:0, parent:0, level:0}

binary_tree:  huff_tree[9]:'{ascii_char:z, frequency:0, is_leaf_node:'h0, left_node:0, right_node:0, parent:0, level:0}

