DVEfiles/dve_gui.log
Chronologic VCS simulator copyright 1991-2022
Contains Synopsys proprietary information.
Compiler version T-2022.06_Full64; Runtime version T-2022.06_Full64;  Apr 16 21:06 2023
VCD+ Writer T-2022.06_Full64 Copyright (c) 1991-2022 by Synopsys Inc.
The file '/afs/ece.cmu.edu/usr/araghave/18624/project/inter.vpd' was opened successfully.
time:                   0, Input data: data_en:x, state:x

INPUT datain:xxxxxx

INPUT freqin0:x, freqin1:x, freqin2:x

Initial node:'{'{ascii_char:'hxx, frequency:'hx, is_leaf_node:'h1, left_node:'h0, right_node:'h0}, '{ascii_char:'hxx, frequency:'hx, is_leaf_node:'h1, left_node:'h0, right_node:'h0}, '{ascii_char:'hxx, frequency:'hx, is_leaf_node:'h1, left_node:'h0, right_node:'h0}} 

in_huff_tree:'{'{ascii_char:'hxx, frequency:'hx, is_leaf_node:'hx, left_node:'hxx, right_node:'hxx}, '{ascii_char:'hxx, frequency:'hx, is_leaf_node:'hx, left_node:'hxx, right_node:'hxx}, '{ascii_char:'hxx, frequency:'hx, is_leaf_node:'hx, left_node:'hxx, right_node:'hxx}} 


out_huff_tree:'{'{ascii_char:'hxx, frequency:'hx, is_leaf_node:'hx, left_node:'hxx, right_node:'hxx}, '{ascii_char:'hxx, frequency:'hx, is_leaf_node:'hx, left_node:'hxx, right_node:'hxx}, '{ascii_char:'hxx, frequency:'hx, is_leaf_node:'hx, left_node:'hxx, right_node:'hxx}, '{ascii_char:'hxx, frequency:'hx, is_leaf_node:'hx, left_node:'hxx, right_node:'hxx}} 


binary_tree:  huff_tree[0]:'{ascii_char:'hxx, is_leaf_node:'hx, left_node:'hxx, right_node:'hxx, parent:'hx, level:'hx}, encoded_values_h[0]:xxx

binary_tree:  huff_tree[1]:'{ascii_char:'hxx, is_leaf_node:'hx, left_node:'hxx, right_node:'hxx, parent:'hx, level:'hx}, encoded_values_h[1]:xxx

binary_tree:  huff_tree[2]:'{ascii_char:'hxx, is_leaf_node:'hx, left_node:'hxx, right_node:'hxx, parent:'hx, level:'hx}, encoded_values_h[2]:xxx

binary_tree:  huff_tree[3]:'{ascii_char:'hxx, is_leaf_node:'hx, left_node:'hxx, right_node:'hxx, parent:'hx, level:'hx}, encoded_values_h[3]:xxx

binary_tree:  huff_tree[4]:'{ascii_char:'hxx, is_leaf_node:'hx, left_node:'hxx, right_node:'hxx, parent:'hx, level:'hx}, encoded_values_h[4]:xxx

binary_tree:  huff_tree[5]:'{ascii_char:'hxx, is_leaf_node:'hx, left_node:'hxx, right_node:'hxx, parent:'hx, level:'hx}, encoded_values_h[5]:xxx

OUTPUT: character[0]:xx, encoded mask[0]:xxx, encoded values[0]:xxx

OUTPUT: character[1]:xx, encoded mask[1]:xxx, encoded values[1]:xxx

OUTPUT: character[2]:xx, encoded mask[2]:xxx, encoded values[2]:xxx

state:x

time:             1000000, Input data: data_en:x, state:x

INPUT datain:xxxxxx

INPUT freqin0:x, freqin1:x, freqin2:x

Initial node:'{'{ascii_char:'hxx, frequency:'hx, is_leaf_node:'h1, left_node:'h0, right_node:'h0}, '{ascii_char:'hxx, frequency:'hx, is_leaf_node:'h1, left_node:'h0, right_node:'h0}, '{ascii_char:'hxx, frequency:'hx, is_leaf_node:'h1, left_node:'h0, right_node:'h0}} 

in_huff_tree:'{'{ascii_char:'h0, frequency:'h0, is_leaf_node:'h0, left_node:'h0, right_node:'h0}, '{ascii_char:'h0, frequency:'h0, is_leaf_node:'h0, left_node:'h0, right_node:'h0}, '{ascii_char:'h0, frequency:'h0, is_leaf_node:'h0, left_node:'h0, right_node:'h0}} 


out_huff_tree:'{'{ascii_char:'hxx, frequency:'hx, is_leaf_node:'hx, left_node:'hxx, right_node:'hxx}, '{ascii_char:'hxx, frequency:'hx, is_leaf_node:'hx, left_node:'hxx, right_node:'hxx}, '{ascii_char:'hxx, frequency:'hx, is_leaf_node:'hx, left_node:'hxx, right_node:'hxx}, '{ascii_char:'hxx, frequency:'hx, is_leaf_node:'hx, left_node:'hxx, right_node:'hxx}} 


binary_tree:  huff_tree[0]:'{ascii_char:'h0, is_leaf_node:'h0, left_node:'h0, right_node:'h0, parent:'h0, level:'h0}, encoded_values_h[0]:000

binary_tree:  huff_tree[1]:'{ascii_char:'h0, is_leaf_node:'h0, left_node:'h0, right_node:'h0, parent:'h0, level:'h0}, encoded_values_h[1]:000

binary_tree:  huff_tree[2]:'{ascii_char:'h0, is_leaf_node:'h0, left_node:'h0, right_node:'h0, parent:'h0, level:'h0}, encoded_values_h[2]:000

binary_tree:  huff_tree[3]:'{ascii_char:'h0, is_leaf_node:'h0, left_node:'h0, right_node:'h0, parent:'h0, level:'h0}, encoded_values_h[3]:000

binary_tree:  huff_tree[4]:'{ascii_char:'h0, is_leaf_node:'h0, left_node:'h0, right_node:'h0, parent:'h0, level:'h0}, encoded_values_h[4]:000

binary_tree:  huff_tree[5]:'{ascii_char:'h0, is_leaf_node:'h0, left_node:'h0, right_node:'h0, parent:'h0, level:'h0}, encoded_values_h[5]:000

OUTPUT: character[0]:00, encoded mask[0]:000, encoded values[0]:000

OUTPUT: character[1]:00, encoded mask[1]:000, encoded values[1]:000

OUTPUT: character[2]:00, encoded mask[2]:000, encoded values[2]:000

state:x

time:             1000000, Input data: data_en:x, state:1

INPUT datain:xxxxxx

INPUT freqin0:x, freqin1:x, freqin2:x

Initial node:'{'{ascii_char:'hxx, frequency:'hx, is_leaf_node:'h1, left_node:'h0, right_node:'h0}, '{ascii_char:'hxx, frequency:'hx, is_leaf_node:'h1, left_node:'h0, right_node:'h0}, '{ascii_char:'hxx, frequency:'hx, is_leaf_node:'h1, left_node:'h0, right_node:'h0}} 

in_huff_tree:'{'{ascii_char:'h0, frequency:'h0, is_leaf_node:'h0, left_node:'h0, right_node:'h0}, '{ascii_char:'h0, frequency:'h0, is_leaf_node:'h0, left_node:'h0, right_node:'h0}, '{ascii_char:'h0, frequency:'h0, is_leaf_node:'h0, left_node:'h0, right_node:'h0}} 


out_huff_tree:'{'{ascii_char:'hxx, frequency:'hx, is_leaf_node:'hx, left_node:'hxx, right_node:'hxx}, '{ascii_char:'hxx, frequency:'hx, is_leaf_node:'hx, left_node:'hxx, right_node:'hxx}, '{ascii_char:'hxx, frequency:'hx, is_leaf_node:'hx, left_node:'hxx, right_node:'hxx}, '{ascii_char:'hxx, frequency:'hx, is_leaf_node:'hx, left_node:'hxx, right_node:'hxx}} 


binary_tree:  huff_tree[0]:'{ascii_char:'h0, is_leaf_node:'h0, left_node:'h0, right_node:'h0, parent:'h0, level:'h0}, encoded_values_h[0]:000

binary_tree:  huff_tree[1]:'{ascii_char:'h0, is_leaf_node:'h0, left_node:'h0, right_node:'h0, parent:'h0, level:'h0}, encoded_values_h[1]:000

binary_tree:  huff_tree[2]:'{ascii_char:'h0, is_leaf_node:'h0, left_node:'h0, right_node:'h0, parent:'h0, level:'h0}, encoded_values_h[2]:000

binary_tree:  huff_tree[3]:'{ascii_char:'h0, is_leaf_node:'h0, left_node:'h0, right_node:'h0, parent:'h0, level:'h0}, encoded_values_h[3]:000

binary_tree:  huff_tree[4]:'{ascii_char:'h0, is_leaf_node:'h0, left_node:'h0, right_node:'h0, parent:'h0, level:'h0}, encoded_values_h[4]:000

binary_tree:  huff_tree[5]:'{ascii_char:'h0, is_leaf_node:'h0, left_node:'h0, right_node:'h0, parent:'h0, level:'h0}, encoded_values_h[5]:000

OUTPUT: character[0]:00, encoded mask[0]:000, encoded values[0]:000

OUTPUT: character[1]:00, encoded mask[1]:000, encoded values[1]:000

OUTPUT: character[2]:00, encoded mask[2]:000, encoded values[2]:000

state:1

time:             2000000, Input data: data_en:x, state:1

INPUT datain:xxxxxx

INPUT freqin0:x, freqin1:x, freqin2:x

Initial node:'{'{ascii_char:'hxx, frequency:'hx, is_leaf_node:'h1, left_node:'h0, right_node:'h0}, '{ascii_char:'hxx, frequency:'hx, is_leaf_node:'h1, left_node:'h0, right_node:'h0}, '{ascii_char:'hxx, frequency:'hx, is_leaf_node:'h1, left_node:'h0, right_node:'h0}} 

in_huff_tree:'{'{ascii_char:'h0, frequency:'h0, is_leaf_node:'h0, left_node:'h0, right_node:'h0}, '{ascii_char:'h0, frequency:'h0, is_leaf_node:'h0, left_node:'h0, right_node:'h0}, '{ascii_char:'h0, frequency:'h0, is_leaf_node:'h0, left_node:'h0, right_node:'h0}} 


out_huff_tree:'{'{ascii_char:'h0, frequency:'h0, is_leaf_node:'h0, left_node:'h0, right_node:'h0}, '{ascii_char:'h0, frequency:'h0, is_leaf_node:'h0, left_node:'h0, right_node:'h0}, '{ascii_char:'h0, frequency:'h0, is_leaf_node:'h0, left_node:'h0, right_node:'h0}, '{ascii_char:'hxx, frequency:'hx, is_leaf_node:'hx, left_node:'hxx, right_node:'hxx}} 


binary_tree:  huff_tree[0]:'{ascii_char:'h0, is_leaf_node:'h0, left_node:'h0, right_node:'h0, parent:'h0, level:'h0}, encoded_values_h[0]:000

binary_tree:  huff_tree[1]:'{ascii_char:'h0, is_leaf_node:'h0, left_node:'h0, right_node:'h0, parent:'h0, level:'h0}, encoded_values_h[1]:000

binary_tree:  huff_tree[2]:'{ascii_char:'h0, is_leaf_node:'h0, left_node:'h0, right_node:'h0, parent:'h0, level:'h0}, encoded_values_h[2]:000

binary_tree:  huff_tree[3]:'{ascii_char:'h0, is_leaf_node:'h0, left_node:'h0, right_node:'h0, parent:'h0, level:'h0}, encoded_values_h[3]:000

binary_tree:  huff_tree[4]:'{ascii_char:'h0, is_leaf_node:'h0, left_node:'h0, right_node:'h0, parent:'h0, level:'h0}, encoded_values_h[4]:000

binary_tree:  huff_tree[5]:'{ascii_char:'h0, is_leaf_node:'h0, left_node:'h0, right_node:'h0, parent:'h0, level:'h0}, encoded_values_h[5]:000

OUTPUT: character[0]:00, encoded mask[0]:000, encoded values[0]:000

OUTPUT: character[1]:00, encoded mask[1]:000, encoded values[1]:000

OUTPUT: character[2]:00, encoded mask[2]:000, encoded values[2]:000

state:1

time:             6000000, Input data: data_en:x, state:1

INPUT datain:61xxxx

INPUT freqin0:3, freqin1:x, freqin2:x

Initial node:'{'{ascii_char:'hxx, frequency:'hx, is_leaf_node:'h1, left_node:'h0, right_node:'h0}, '{ascii_char:'hxx, frequency:'hx, is_leaf_node:'h1, left_node:'h0, right_node:'h0}, '{ascii_char:'hxx, frequency:'hx, is_leaf_node:'h1, left_node:'h0, right_node:'h0}} 

in_huff_tree:'{'{ascii_char:'h0, frequency:'h0, is_leaf_node:'h0, left_node:'h0, right_node:'h0}, '{ascii_char:'h0, frequency:'h0, is_leaf_node:'h0, left_node:'h0, right_node:'h0}, '{ascii_char:'h0, frequency:'h0, is_leaf_node:'h0, left_node:'h0, right_node:'h0}} 


out_huff_tree:'{'{ascii_char:'h0, frequency:'h0, is_leaf_node:'h0, left_node:'h0, right_node:'h0}, '{ascii_char:'h0, frequency:'h0, is_leaf_node:'h0, left_node:'h0, right_node:'h0}, '{ascii_char:'h0, frequency:'h0, is_leaf_node:'h0, left_node:'h0, right_node:'h0}, '{ascii_char:'hxx, frequency:'hx, is_leaf_node:'hx, left_node:'hxx, right_node:'hxx}} 


binary_tree:  huff_tree[0]:'{ascii_char:'h0, is_leaf_node:'h0, left_node:'h0, right_node:'h0, parent:'h0, level:'h0}, encoded_values_h[0]:000

binary_tree:  huff_tree[1]:'{ascii_char:'h0, is_leaf_node:'h0, left_node:'h0, right_node:'h0, parent:'h0, level:'h0}, encoded_values_h[1]:000

binary_tree:  huff_tree[2]:'{ascii_char:'h0, is_leaf_node:'h0, left_node:'h0, right_node:'h0, parent:'h0, level:'h0}, encoded_values_h[2]:000

binary_tree:  huff_tree[3]:'{ascii_char:'h0, is_leaf_node:'h0, left_node:'h0, right_node:'h0, parent:'h0, level:'h0}, encoded_values_h[3]:000

binary_tree:  huff_tree[4]:'{ascii_char:'h0, is_leaf_node:'h0, left_node:'h0, right_node:'h0, parent:'h0, level:'h0}, encoded_values_h[4]:000

binary_tree:  huff_tree[5]:'{ascii_char:'h0, is_leaf_node:'h0, left_node:'h0, right_node:'h0, parent:'h0, level:'h0}, encoded_values_h[5]:000

OUTPUT: character[0]:00, encoded mask[0]:000, encoded values[0]:000

OUTPUT: character[1]:00, encoded mask[1]:000, encoded values[1]:000

OUTPUT: character[2]:00, encoded mask[2]:000, encoded values[2]:000

state:1

time:             6000000, Input data: data_en:x, state:1

INPUT datain:61xxxx

INPUT freqin0:3, freqin1:x, freqin2:x

Initial node:'{'{ascii_char:'h1, frequency:'h3, is_leaf_node:'h1, left_node:'h0, right_node:'h0}, '{ascii_char:'hxx, frequency:'hx, is_leaf_node:'h1, left_node:'h0, right_node:'h0}, '{ascii_char:'hxx, frequency:'hx, is_leaf_node:'h1, left_node:'h0, right_node:'h0}} 

in_huff_tree:'{'{ascii_char:'h0, frequency:'h0, is_leaf_node:'h0, left_node:'h0, right_node:'h0}, '{ascii_char:'h0, frequency:'h0, is_leaf_node:'h0, left_node:'h0, right_node:'h0}, '{ascii_char:'h0, frequency:'h0, is_leaf_node:'h0, left_node:'h0, right_node:'h0}} 


out_huff_tree:'{'{ascii_char:'h0, frequency:'h0, is_leaf_node:'h0, left_node:'h0, right_node:'h0}, '{ascii_char:'h0, frequency:'h0, is_leaf_node:'h0, left_node:'h0, right_node:'h0}, '{ascii_char:'h0, frequency:'h0, is_leaf_node:'h0, left_node:'h0, right_node:'h0}, '{ascii_char:'hxx, frequency:'hx, is_leaf_node:'hx, left_node:'hxx, right_node:'hxx}} 


binary_tree:  huff_tree[0]:'{ascii_char:'h0, is_leaf_node:'h0, left_node:'h0, right_node:'h0, parent:'h0, level:'h0}, encoded_values_h[0]:000

binary_tree:  huff_tree[1]:'{ascii_char:'h0, is_leaf_node:'h0, left_node:'h0, right_node:'h0, parent:'h0, level:'h0}, encoded_values_h[1]:000

binary_tree:  huff_tree[2]:'{ascii_char:'h0, is_leaf_node:'h0, left_node:'h0, right_node:'h0, parent:'h0, level:'h0}, encoded_values_h[2]:000

binary_tree:  huff_tree[3]:'{ascii_char:'h0, is_leaf_node:'h0, left_node:'h0, right_node:'h0, parent:'h0, level:'h0}, encoded_values_h[3]:000

binary_tree:  huff_tree[4]:'{ascii_char:'h0, is_leaf_node:'h0, left_node:'h0, right_node:'h0, parent:'h0, level:'h0}, encoded_values_h[4]:000

binary_tree:  huff_tree[5]:'{ascii_char:'h0, is_leaf_node:'h0, left_node:'h0, right_node:'h0, parent:'h0, level:'h0}, encoded_values_h[5]:000

OUTPUT: character[0]:00, encoded mask[0]:000, encoded values[0]:000

OUTPUT: character[1]:00, encoded mask[1]:000, encoded values[1]:000

OUTPUT: character[2]:00, encoded mask[2]:000, encoded values[2]:000

state:1

time:             7000000, Input data: data_en:x, state:1

INPUT datain:616exx

INPUT freqin0:3, freqin1:3, freqin2:x

Initial node:'{'{ascii_char:'h1, frequency:'h3, is_leaf_node:'h1, left_node:'h0, right_node:'h0}, '{ascii_char:'hxx, frequency:'hx, is_leaf_node:'h1, left_node:'h0, right_node:'h0}, '{ascii_char:'hxx, frequency:'hx, is_leaf_node:'h1, left_node:'h0, right_node:'h0}} 

in_huff_tree:'{'{ascii_char:'h0, frequency:'h0, is_leaf_node:'h0, left_node:'h0, right_node:'h0}, '{ascii_char:'h0, frequency:'h0, is_leaf_node:'h0, left_node:'h0, right_node:'h0}, '{ascii_char:'h0, frequency:'h0, is_leaf_node:'h0, left_node:'h0, right_node:'h0}} 


out_huff_tree:'{'{ascii_char:'h0, frequency:'h0, is_leaf_node:'h0, left_node:'h0, right_node:'h0}, '{ascii_char:'h0, frequency:'h0, is_leaf_node:'h0, left_node:'h0, right_node:'h0}, '{ascii_char:'h0, frequency:'h0, is_leaf_node:'h0, left_node:'h0, right_node:'h0}, '{ascii_char:'hxx, frequency:'hx, is_leaf_node:'hx, left_node:'hxx, right_node:'hxx}} 


binary_tree:  huff_tree[0]:'{ascii_char:'h0, is_leaf_node:'h0, left_node:'h0, right_node:'h0, parent:'h0, level:'h0}, encoded_values_h[0]:000

binary_tree:  huff_tree[1]:'{ascii_char:'h0, is_leaf_node:'h0, left_node:'h0, right_node:'h0, parent:'h0, level:'h0}, encoded_values_h[1]:000

binary_tree:  huff_tree[2]:'{ascii_char:'h0, is_leaf_node:'h0, left_node:'h0, right_node:'h0, parent:'h0, level:'h0}, encoded_values_h[2]:000

binary_tree:  huff_tree[3]:'{ascii_char:'h0, is_leaf_node:'h0, left_node:'h0, right_node:'h0, parent:'h0, level:'h0}, encoded_values_h[3]:000

binary_tree:  huff_tree[4]:'{ascii_char:'h0, is_leaf_node:'h0, left_node:'h0, right_node:'h0, parent:'h0, level:'h0}, encoded_values_h[4]:000

binary_tree:  huff_tree[5]:'{ascii_char:'h0, is_leaf_node:'h0, left_node:'h0, right_node:'h0, parent:'h0, level:'h0}, encoded_values_h[5]:000

OUTPUT: character[0]:00, encoded mask[0]:000, encoded values[0]:000

OUTPUT: character[1]:00, encoded mask[1]:000, encoded values[1]:000

OUTPUT: character[2]:00, encoded mask[2]:000, encoded values[2]:000

state:1

time:             7000000, Input data: data_en:x, state:1

INPUT datain:616exx

INPUT freqin0:3, freqin1:3, freqin2:x

Initial node:'{'{ascii_char:'h1, frequency:'h3, is_leaf_node:'h1, left_node:'h0, right_node:'h0}, '{ascii_char:'he, frequency:'h3, is_leaf_node:'h1, left_node:'h0, right_node:'h0}, '{ascii_char:'hxx, frequency:'hx, is_leaf_node:'h1, left_node:'h0, right_node:'h0}} 

in_huff_tree:'{'{ascii_char:'h0, frequency:'h0, is_leaf_node:'h0, left_node:'h0, right_node:'h0}, '{ascii_char:'h0, frequency:'h0, is_leaf_node:'h0, left_node:'h0, right_node:'h0}, '{ascii_char:'h0, frequency:'h0, is_leaf_node:'h0, left_node:'h0, right_node:'h0}} 


out_huff_tree:'{'{ascii_char:'h0, frequency:'h0, is_leaf_node:'h0, left_node:'h0, right_node:'h0}, '{ascii_char:'h0, frequency:'h0, is_leaf_node:'h0, left_node:'h0, right_node:'h0}, '{ascii_char:'h0, frequency:'h0, is_leaf_node:'h0, left_node:'h0, right_node:'h0}, '{ascii_char:'hxx, frequency:'hx, is_leaf_node:'hx, left_node:'hxx, right_node:'hxx}} 


binary_tree:  huff_tree[0]:'{ascii_char:'h0, is_leaf_node:'h0, left_node:'h0, right_node:'h0, parent:'h0, level:'h0}, encoded_values_h[0]:000

binary_tree:  huff_tree[1]:'{ascii_char:'h0, is_leaf_node:'h0, left_node:'h0, right_node:'h0, parent:'h0, level:'h0}, encoded_values_h[1]:000

binary_tree:  huff_tree[2]:'{ascii_char:'h0, is_leaf_node:'h0, left_node:'h0, right_node:'h0, parent:'h0, level:'h0}, encoded_values_h[2]:000

binary_tree:  huff_tree[3]:'{ascii_char:'h0, is_leaf_node:'h0, left_node:'h0, right_node:'h0, parent:'h0, level:'h0}, encoded_values_h[3]:000

binary_tree:  huff_tree[4]:'{ascii_char:'h0, is_leaf_node:'h0, left_node:'h0, right_node:'h0, parent:'h0, level:'h0}, encoded_values_h[4]:000

binary_tree:  huff_tree[5]:'{ascii_char:'h0, is_leaf_node:'h0, left_node:'h0, right_node:'h0, parent:'h0, level:'h0}, encoded_values_h[5]:000

OUTPUT: character[0]:00, encoded mask[0]:000, encoded values[0]:000

OUTPUT: character[1]:00, encoded mask[1]:000, encoded values[1]:000

OUTPUT: character[2]:00, encoded mask[2]:000, encoded values[2]:000

state:1

time:             8000000, Input data: data_en:x, state:1

INPUT datain:616e6d

INPUT freqin0:3, freqin1:3, freqin2:2

Initial node:'{'{ascii_char:'h1, frequency:'h3, is_leaf_node:'h1, left_node:'h0, right_node:'h0}, '{ascii_char:'he, frequency:'h3, is_leaf_node:'h1, left_node:'h0, right_node:'h0}, '{ascii_char:'hxx, frequency:'hx, is_leaf_node:'h1, left_node:'h0, right_node:'h0}} 

in_huff_tree:'{'{ascii_char:'h0, frequency:'h0, is_leaf_node:'h0, left_node:'h0, right_node:'h0}, '{ascii_char:'h0, frequency:'h0, is_leaf_node:'h0, left_node:'h0, right_node:'h0}, '{ascii_char:'h0, frequency:'h0, is_leaf_node:'h0, left_node:'h0, right_node:'h0}} 


out_huff_tree:'{'{ascii_char:'h0, frequency:'h0, is_leaf_node:'h0, left_node:'h0, right_node:'h0}, '{ascii_char:'h0, frequency:'h0, is_leaf_node:'h0, left_node:'h0, right_node:'h0}, '{ascii_char:'h0, frequency:'h0, is_leaf_node:'h0, left_node:'h0, right_node:'h0}, '{ascii_char:'hxx, frequency:'hx, is_leaf_node:'hx, left_node:'hxx, right_node:'hxx}} 


binary_tree:  huff_tree[0]:'{ascii_char:'h0, is_leaf_node:'h0, left_node:'h0, right_node:'h0, parent:'h0, level:'h0}, encoded_values_h[0]:000

binary_tree:  huff_tree[1]:'{ascii_char:'h0, is_leaf_node:'h0, left_node:'h0, right_node:'h0, parent:'h0, level:'h0}, encoded_values_h[1]:000

binary_tree:  huff_tree[2]:'{ascii_char:'h0, is_leaf_node:'h0, left_node:'h0, right_node:'h0, parent:'h0, level:'h0}, encoded_values_h[2]:000

binary_tree:  huff_tree[3]:'{ascii_char:'h0, is_leaf_node:'h0, left_node:'h0, right_node:'h0, parent:'h0, level:'h0}, encoded_values_h[3]:000

binary_tree:  huff_tree[4]:'{ascii_char:'h0, is_leaf_node:'h0, left_node:'h0, right_node:'h0, parent:'h0, level:'h0}, encoded_values_h[4]:000

binary_tree:  huff_tree[5]:'{ascii_char:'h0, is_leaf_node:'h0, left_node:'h0, right_node:'h0, parent:'h0, level:'h0}, encoded_values_h[5]:000

OUTPUT: character[0]:00, encoded mask[0]:000, encoded values[0]:000

OUTPUT: character[1]:00, encoded mask[1]:000, encoded values[1]:000

OUTPUT: character[2]:00, encoded mask[2]:000, encoded values[2]:000

state:1

time:             8000000, Input data: data_en:x, state:1

INPUT datain:616e6d

INPUT freqin0:3, freqin1:3, freqin2:2

Initial node:'{'{ascii_char:'h1, frequency:'h3, is_leaf_node:'h1, left_node:'h0, right_node:'h0}, '{ascii_char:'he, frequency:'h3, is_leaf_node:'h1, left_node:'h0, right_node:'h0}, '{ascii_char:'hd, frequency:'h2, is_leaf_node:'h1, left_node:'h0, right_node:'h0}} 

in_huff_tree:'{'{ascii_char:'h0, frequency:'h0, is_leaf_node:'h0, left_node:'h0, right_node:'h0}, '{ascii_char:'h0, frequency:'h0, is_leaf_node:'h0, left_node:'h0, right_node:'h0}, '{ascii_char:'h0, frequency:'h0, is_leaf_node:'h0, left_node:'h0, right_node:'h0}} 


out_huff_tree:'{'{ascii_char:'h0, frequency:'h0, is_leaf_node:'h0, left_node:'h0, right_node:'h0}, '{ascii_char:'h0, frequency:'h0, is_leaf_node:'h0, left_node:'h0, right_node:'h0}, '{ascii_char:'h0, frequency:'h0, is_leaf_node:'h0, left_node:'h0, right_node:'h0}, '{ascii_char:'hxx, frequency:'hx, is_leaf_node:'hx, left_node:'hxx, right_node:'hxx}} 


binary_tree:  huff_tree[0]:'{ascii_char:'h0, is_leaf_node:'h0, left_node:'h0, right_node:'h0, parent:'h0, level:'h0}, encoded_values_h[0]:000

binary_tree:  huff_tree[1]:'{ascii_char:'h0, is_leaf_node:'h0, left_node:'h0, right_node:'h0, parent:'h0, level:'h0}, encoded_values_h[1]:000

binary_tree:  huff_tree[2]:'{ascii_char:'h0, is_leaf_node:'h0, left_node:'h0, right_node:'h0, parent:'h0, level:'h0}, encoded_values_h[2]:000

binary_tree:  huff_tree[3]:'{ascii_char:'h0, is_leaf_node:'h0, left_node:'h0, right_node:'h0, parent:'h0, level:'h0}, encoded_values_h[3]:000

binary_tree:  huff_tree[4]:'{ascii_char:'h0, is_leaf_node:'h0, left_node:'h0, right_node:'h0, parent:'h0, level:'h0}, encoded_values_h[4]:000

binary_tree:  huff_tree[5]:'{ascii_char:'h0, is_leaf_node:'h0, left_node:'h0, right_node:'h0, parent:'h0, level:'h0}, encoded_values_h[5]:000

OUTPUT: character[0]:00, encoded mask[0]:000, encoded values[0]:000

OUTPUT: character[1]:00, encoded mask[1]:000, encoded values[1]:000

OUTPUT: character[2]:00, encoded mask[2]:000, encoded values[2]:000

state:1

time:            10000000, Input data: data_en:x, state:2

INPUT datain:616e6d

INPUT freqin0:3, freqin1:3, freqin2:2

Initial node:'{'{ascii_char:'h1, frequency:'h3, is_leaf_node:'h1, left_node:'h0, right_node:'h0}, '{ascii_char:'he, frequency:'h3, is_leaf_node:'h1, left_node:'h0, right_node:'h0}, '{ascii_char:'hd, frequency:'h2, is_leaf_node:'h1, left_node:'h0, right_node:'h0}} 

in_huff_tree:'{'{ascii_char:'h0, frequency:'h0, is_leaf_node:'h0, left_node:'h0, right_node:'h0}, '{ascii_char:'h0, frequency:'h0, is_leaf_node:'h0, left_node:'h0, right_node:'h0}, '{ascii_char:'h0, frequency:'h0, is_leaf_node:'h0, left_node:'h0, right_node:'h0}} 


out_huff_tree:'{'{ascii_char:'h0, frequency:'h0, is_leaf_node:'h0, left_node:'h0, right_node:'h0}, '{ascii_char:'h0, frequency:'h0, is_leaf_node:'h0, left_node:'h0, right_node:'h0}, '{ascii_char:'h0, frequency:'h0, is_leaf_node:'h0, left_node:'h0, right_node:'h0}, '{ascii_char:'hxx, frequency:'hx, is_leaf_node:'hx, left_node:'hxx, right_node:'hxx}} 


binary_tree:  huff_tree[0]:'{ascii_char:'h0, is_leaf_node:'h0, left_node:'h0, right_node:'h0, parent:'h0, level:'h0}, encoded_values_h[0]:000

binary_tree:  huff_tree[1]:'{ascii_char:'h0, is_leaf_node:'h0, left_node:'h0, right_node:'h0, parent:'h0, level:'h0}, encoded_values_h[1]:000

binary_tree:  huff_tree[2]:'{ascii_char:'h0, is_leaf_node:'h0, left_node:'h0, right_node:'h0, parent:'h0, level:'h0}, encoded_values_h[2]:000

binary_tree:  huff_tree[3]:'{ascii_char:'h0, is_leaf_node:'h0, left_node:'h0, right_node:'h0, parent:'h0, level:'h0}, encoded_values_h[3]:000

binary_tree:  huff_tree[4]:'{ascii_char:'h0, is_leaf_node:'h0, left_node:'h0, right_node:'h0, parent:'h0, level:'h0}, encoded_values_h[4]:000

binary_tree:  huff_tree[5]:'{ascii_char:'h0, is_leaf_node:'h0, left_node:'h0, right_node:'h0, parent:'h0, level:'h0}, encoded_values_h[5]:000

OUTPUT: character[0]:00, encoded mask[0]:000, encoded values[0]:000

OUTPUT: character[1]:00, encoded mask[1]:000, encoded values[1]:000

OUTPUT: character[2]:00, encoded mask[2]:000, encoded values[2]:000

state:2

time:            11000000, Input data: data_en:x, state:2

INPUT datain:616e6d

INPUT freqin0:3, freqin1:3, freqin2:2

Initial node:'{'{ascii_char:'h1, frequency:'h3, is_leaf_node:'h1, left_node:'h0, right_node:'h0}, '{ascii_char:'he, frequency:'h3, is_leaf_node:'h1, left_node:'h0, right_node:'h0}, '{ascii_char:'hd, frequency:'h2, is_leaf_node:'h1, left_node:'h0, right_node:'h0}} 

in_huff_tree:'{'{ascii_char:'h1, frequency:'h3, is_leaf_node:'h1, left_node:'h0, right_node:'h0}, '{ascii_char:'he, frequency:'h3, is_leaf_node:'h1, left_node:'h0, right_node:'h0}, '{ascii_char:'hd, frequency:'h2, is_leaf_node:'h1, left_node:'h0, right_node:'h0}} 


out_huff_tree:'{'{ascii_char:'h0, frequency:'h0, is_leaf_node:'h0, left_node:'h0, right_node:'h0}, '{ascii_char:'h0, frequency:'h0, is_leaf_node:'h0, left_node:'h0, right_node:'h0}, '{ascii_char:'h0, frequency:'h0, is_leaf_node:'h0, left_node:'h0, right_node:'h0}, '{ascii_char:'hxx, frequency:'hx, is_leaf_node:'hx, left_node:'hxx, right_node:'hxx}} 


binary_tree:  huff_tree[0]:'{ascii_char:'h0, is_leaf_node:'h0, left_node:'h0, right_node:'h0, parent:'h0, level:'h0}, encoded_values_h[0]:000

binary_tree:  huff_tree[1]:'{ascii_char:'h0, is_leaf_node:'h0, left_node:'h0, right_node:'h0, parent:'h0, level:'h0}, encoded_values_h[1]:000

binary_tree:  huff_tree[2]:'{ascii_char:'h0, is_leaf_node:'h0, left_node:'h0, right_node:'h0, parent:'h0, level:'h0}, encoded_values_h[2]:000

binary_tree:  huff_tree[3]:'{ascii_char:'h0, is_leaf_node:'h0, left_node:'h0, right_node:'h0, parent:'h0, level:'h0}, encoded_values_h[3]:000

binary_tree:  huff_tree[4]:'{ascii_char:'h0, is_leaf_node:'h0, left_node:'h0, right_node:'h0, parent:'h0, level:'h0}, encoded_values_h[4]:000

binary_tree:  huff_tree[5]:'{ascii_char:'h0, is_leaf_node:'h0, left_node:'h0, right_node:'h0, parent:'h0, level:'h0}, encoded_values_h[5]:000

OUTPUT: character[0]:00, encoded mask[0]:000, encoded values[0]:000

OUTPUT: character[1]:00, encoded mask[1]:000, encoded values[1]:000

OUTPUT: character[2]:00, encoded mask[2]:000, encoded values[2]:000

state:2

time:            11000000, Input data: data_en:x, state:3

INPUT datain:616e6d

INPUT freqin0:3, freqin1:3, freqin2:2

Initial node:'{'{ascii_char:'h1, frequency:'h3, is_leaf_node:'h1, left_node:'h0, right_node:'h0}, '{ascii_char:'he, frequency:'h3, is_leaf_node:'h1, left_node:'h0, right_node:'h0}, '{ascii_char:'hd, frequency:'h2, is_leaf_node:'h1, left_node:'h0, right_node:'h0}} 

in_huff_tree:'{'{ascii_char:'h1, frequency:'h3, is_leaf_node:'h1, left_node:'h0, right_node:'h0}, '{ascii_char:'he, frequency:'h3, is_leaf_node:'h1, left_node:'h0, right_node:'h0}, '{ascii_char:'hd, frequency:'h2, is_leaf_node:'h1, left_node:'h0, right_node:'h0}} 


